(
        {
        GUID = 1510885090;
        "tile-data" =         {
            book = <626f6f6b dc020000 00000410 30000000 00000000 00000000 00000000 00000000 00000000 00000000 00000000 00000000 fc010000 0c000000 01010000 4170706c 69636174 696f6e73 0c000000 01010000 4b656550 61737358 2e617070 08000000 01060000 04000000 18000000 08000000 04030000 29000000 00000000 08000000 04030000 3b961a00 00000000 08000000 01060000 3c000000 4c000000 08000000 00040000 41bd7c7f 2e000000 18000000 01020000 02000000 00000000 0f000000 00000000 00000000 00000000 08000000 01090000 66696c65 3a2f2f2f 0c000000 01010000 4d616369 6e746f73 68204844 08000000 04030000 00503f2d 1c000000 08000000 00040000 41c0aa62 88fba6bc 24000000 01010000 39423845 37454442 2d423134 302d3445 35372d38 3135442d 34453431 42343345 37343946 18000000 01020000 81000000 01000000 ef130000 01000000 00000000 00000000 01000000 01010000 2f000000 00000000 01050000 b4000000 01020000 38623062 62386131 36623730 30356663 38623332 31643833 62373136 66623234 30396665 66626337 3b30303b 30303030 30303030 3b303030 30303030 303b3030 30303030 30303b30 30303030 30303030 30303030 3032303b 636f6d2e 6170706c 652e6170 702d7361 6e64626f 782e7265 61642d77 72697465 3b30313b 30313030 30303034 3b303030 30303030 30303031 61393633 623b3031 3b2f6170 706c6963 6174696f 6e732f6b 65657061 7373782e 61707000 a8000000 feffffff 01000000 00000000 0d000000 04100000 2c000000 00000000 05100000 5c000000 00000000 10100000 7c000000 00000000 40100000 6c000000 00000000 02200000 2c010000 00000000 05200000 9c000000 00000000 10200000 ac000000 00000000 11200000 e0000000 00000000 12200000 c0000000 00000000 13200000 d0000000 00000000 20200000 0c010000 00000000 30200000 38010000 00000000 80f00000 40010000 00000000>;
            "bundle-identifier" = "org.keepassx.keepassx";
            "dock-extra" = 0;
            "file-data" =             {
                "_CFURLString" = "file:///Applications/KeePassX.app/";
                "_CFURLStringType" = 15;
            };
            "file-label" = KeePassX;
            "file-mod-date" = 3555850286;
            "file-type" = 41;
            "parent-mod-date" = 110959836600734;
        };
        "tile-type" = "file-tile";
    },
        {
        GUID = 3423600558;
        "tile-data" =         {
            book = <626f6f6b d8020000 00000410 30000000 00000000 00000000 00000000 00000000 00000000 00000000 00000000 00000000 f8010000 0c000000 01010000 4170706c 69636174 696f6e73 0c000000 01010000 43616c65 6e646172 2e617070 08000000 01060000 04000000 18000000 08000000 04030000 29000000 00000000 08000000 04030000 e0240000 00000000 08000000 01060000 3c000000 4c000000 08000000 00040000 41c093d6 24800000 18000000 01020000 02000000 00000000 0f000000 00000000 00000000 00000000 08000000 01090000 66696c65 3a2f2f2f 0c000000 01010000 4d616369 6e746f73 68204844 08000000 04030000 00503f2d 1c000000 08000000 00040000 41c0aa62 88fba6bc 24000000 01010000 39423845 37454442 2d423134 302d3445 35372d38 3135442d 34453431 42343345 37343946 18000000 01020000 81000000 01000000 ef130000 01000000 00000000 00000000 01000000 01010000 2f000000 00000000 01050000 ae000000 01020000 31643330 66666261 61663033 36393635 33383264 37353833 65363934 62333163 64613838 34353031 3b30303b 30303030 30303030 3b303030 30303030 303b3030 30303030 30303b30 30303030 30303030 30303030 3031613b 636f6d2e 6170706c 652e6170 702d7361 6e64626f 782e7265 61643b30 313b3031 30303030 30343b30 30303030 30303030 30303032 3465303b 30353b2f 6170706c 69636174 696f6e73 2f63616c 656e6461 722e6170 70000000 a8000000 feffffff 01000000 00000000 0d000000 04100000 2c000000 00000000 05100000 5c000000 00000000 10100000 7c000000 00000000 40100000 6c000000 00000000 02200000 2c010000 00000000 05200000 9c000000 00000000 10200000 ac000000 00000000 11200000 e0000000 00000000 12200000 c0000000 00000000 13200000 d0000000 00000000 20200000 0c010000 00000000 30200000 38010000 00000000 81f00000 40010000 00000000>;
            "bundle-identifier" = "com.apple.iCal";
            "dock-extra" = 1;
            "file-data" =             {
                "_CFURLString" = "file:///Applications/Calendar.app/";
                "_CFURLStringType" = 15;
            };
            "file-label" = Calendar;
            "file-mod-date" = 102992667446701;
            "file-type" = 41;
            "parent-mod-date" = 177561895778220;
        };
        "tile-type" = "file-tile";
    },
        {
        GUID = 3423600559;
        "tile-data" =         {
            book = <626f6f6b d4020000 00000410 30000000 00000000 00000000 00000000 00000000 00000000 00000000 00000000 00000000 f4010000 0c000000 01010000 4170706c 69636174 696f6e73 09000000 01010000 4e6f7465 732e6170 70000000 08000000 01060000 04000000 18000000 08000000 04030000 29000000 00000000 08000000 04030000 de980000 00000000 08000000 01060000 3c000000 4c000000 08000000 00040000 41c095e0 9b000000 18000000 01020000 02000000 00000000 0f000000 00000000 00000000 00000000 08000000 01090000 66696c65 3a2f2f2f 0c000000 01010000 4d616369 6e746f73 68204844 08000000 04030000 00503f2d 1c000000 08000000 00040000 41c0aa62 88fba6bc 24000000 01010000 39423845 37454442 2d423134 302d3445 35372d38 3135442d 34453431 42343345 37343946 18000000 01020000 81000000 01000000 ef130000 01000000 00000000 00000000 01000000 01010000 2f000000 00000000 01050000 ab000000 01020000 65666232 33636533 63366232 62303832 65616635 34343335 30383665 64323330 62646635 63366564 3b30303b 30303030 30303030 3b303030 30303030 303b3030 30303030 30303b30 30303030 30303030 30303030 3031613b 636f6d2e 6170706c 652e6170 702d7361 6e64626f 782e7265 61643b30 313b3031 30303030 30343b30 30303030 30303030 30303039 3864653b 30353b2f 6170706c 69636174 696f6e73 2f6e6f74 65732e61 70700000 a8000000 feffffff 01000000 00000000 0d000000 04100000 2c000000 00000000 05100000 5c000000 00000000 10100000 7c000000 00000000 40100000 6c000000 00000000 02200000 2c010000 00000000 05200000 9c000000 00000000 10200000 ac000000 00000000 11200000 e0000000 00000000 12200000 c0000000 00000000 13200000 d0000000 00000000 20200000 0c010000 00000000 30200000 38010000 00000000 81f00000 40010000 00000000>;
            "bundle-identifier" = "com.apple.Notes";
            "dock-extra" = 0;
            "file-data" =             {
                "_CFURLString" = "file:///Applications/Notes.app/";
                "_CFURLStringType" = 15;
            };
            "file-label" = Notes;
            "file-mod-date" = 105745741483437;
            "file-type" = 41;
            "parent-mod-date" = 177561895778220;
        };
        "tile-type" = "file-tile";
    },
        {
        GUID = 1510885115;
        "tile-data" =         {
            book = <626f6f6b f4020000 00000410 30000000 00000000 00000000 00000000 00000000 00000000 00000000 00000000 00000000 14020000 0c000000 01010000 4170706c 69636174 696f6e73 15000000 01010000 4d696372 6f736f66 74204f6e 654e6f74 652e6170 70000000 08000000 01060000 04000000 18000000 08000000 04030000 29000000 00000000 08000000 04030000 46028e00 00000000 08000000 01060000 48000000 58000000 08000000 00040000 41c16e2d f8000000 18000000 01020000 02000000 00000000 0f000000 00000000 00000000 00000000 08000000 01090000 66696c65 3a2f2f2f 0c000000 01010000 4d616369 6e746f73 68204844 08000000 04030000 00503f2d 1c000000 08000000 00040000 41c0aa62 88fba6bc 24000000 01010000 39423845 37454442 2d423134 302d3445 35372d38 3135442d 34453431 42343345 37343946 18000000 01020000 81000000 01000000 ef130000 01000000 00000000 00000000 01000000 01010000 2f000000 00000000 01050000 bd000000 01020000 65633564 31666538 63313532 38363462 30643835 66373031 64626234 61333064 31393739 33363531 3b30303b 30303030 30303030 3b303030 30303030 303b3030 30303030 30303b30 30303030 30303030 30303030 3032303b 636f6d2e 6170706c 652e6170 702d7361 6e64626f 782e7265 61642d77 72697465 3b30313b 30313030 30303034 3b303030 30303030 30303038 65303234 363b3031 3b2f6170 706c6963 6174696f 6e732f6d 6963726f 736f6674 206f6e65 6e6f7465 2e617070 00000000 a8000000 feffffff 01000000 00000000 0d000000 04100000 38000000 00000000 05100000 68000000 00000000 10100000 88000000 00000000 40100000 78000000 00000000 02200000 38010000 00000000 05200000 a8000000 00000000 10200000 b8000000 00000000 11200000 ec000000 00000000 12200000 cc000000 00000000 13200000 dc000000 00000000 20200000 18010000 00000000 30200000 44010000 00000000 80f00000 4c010000 00000000>;
            "bundle-identifier" = "com.microsoft.onenote.mac";
            "dock-extra" = 0;
            "file-data" =             {
                "_CFURLString" = "file:///Applications/Microsoft%20OneNote.app/";
                "_CFURLStringType" = 15;
            };
            "file-label" = "Microsoft OneNote";
            "file-mod-date" = 143129136828241;
            "file-type" = 41;
            "parent-mod-date" = 43954050940996;
        };
        "tile-type" = "file-tile";
    },
        {
        GUID = 3556265166;
        "tile-data" =         {
            book = <626f6f6b dc020000 00000410 30000000 00000000 00000000 00000000 00000000 00000000 00000000 00000000 00000000 fc010000 0c000000 01010000 4170706c 69636174 696f6e73 0b000000 01010000 546f646f 6973742e 61707000 08000000 01060000 04000000 18000000 08000000 04030000 29000000 00000000 08000000 04030000 17199100 00000000 08000000 01060000 3c000000 4c000000 08000000 00040000 41c142f3 c1800000 18000000 01020000 02000000 00000000 0f000000 00000000 00000000 00000000 08000000 01090000 66696c65 3a2f2f2f 0c000000 01010000 4d616369 6e746f73 68204844 08000000 04030000 00503f2d 1c000000 08000000 00040000 41c0aa62 88fba6bc 24000000 01010000 39423845 37454442 2d423134 302d3445 35372d38 3135442d 34453431 42343345 37343946 18000000 01020000 81000000 01000000 ef130000 01000000 00000000 00000000 01000000 01010000 2f000000 00000000 01050000 b3000000 01020000 32323263 34656565 31363162 38393231 61323262 34666535 37323933 32343731 31386366 66613461 3b30303b 30303030 30303030 3b303030 30303030 303b3030 30303030 30303b30 30303030 30303030 30303030 3032303b 636f6d2e 6170706c 652e6170 702d7361 6e64626f 782e7265 61642d77 72697465 3b30313b 30313030 30303034 3b303030 30303030 30303039 31313931 373b3031 3b2f6170 706c6963 6174696f 6e732f74 6f646f69 73742e61 70700000 a8000000 feffffff 01000000 00000000 0d000000 04100000 2c000000 00000000 05100000 5c000000 00000000 10100000 7c000000 00000000 40100000 6c000000 00000000 02200000 2c010000 00000000 05200000 9c000000 00000000 10200000 ac000000 00000000 11200000 e0000000 00000000 12200000 c0000000 00000000 13200000 d0000000 00000000 20200000 0c010000 00000000 30200000 38010000 00000000 80f00000 40010000 00000000>;
            "bundle-identifier" = "com.todoist.mac.Todoist";
            "dock-extra" = 0;
            "file-data" =             {
                "_CFURLString" = "file:///Applications/Todoist.app/";
                "_CFURLStringType" = 15;
            };
            "file-label" = Todoist;
            "file-mod-date" = 176204679975000;
            "file-type" = 41;
            "parent-mod-date" = 177561895778220;
        };
        "tile-type" = "file-tile";
    },
        {
        GUID = 3556265121;
        "tile-data" =         {
            book = <626f6f6b dc020000 00000410 30000000 00000000 00000000 00000000 00000000 00000000 00000000 00000000 00000000 fc010000 0c000000 01010000 4170706c 69636174 696f6e73 0c000000 01010000 54656c65 6772616d 2e617070 08000000 01060000 04000000 18000000 08000000 04030000 29000000 00000000 08000000 04030000 bb7f9100 00000000 08000000 01060000 3c000000 4c000000 08000000 00040000 41c16b25 be800000 18000000 01020000 02000000 00000000 0f000000 00000000 00000000 00000000 08000000 01090000 66696c65 3a2f2f2f 0c000000 01010000 4d616369 6e746f73 68204844 08000000 04030000 00503f2d 1c000000 08000000 00040000 41c0aa62 88fba6bc 24000000 01010000 39423845 37454442 2d423134 302d3445 35372d38 3135442d 34453431 42343345 37343946 18000000 01020000 81000000 01000000 ef130000 01000000 00000000 00000000 01000000 01010000 2f000000 00000000 01050000 b4000000 01020000 36306664 65316538 66643231 34333865 30656637 33353337 33393962 33663265 32643962 37373466 3b30303b 30303030 30303030 3b303030 30303030 303b3030 30303030 30303b30 30303030 30303030 30303030 3032303b 636f6d2e 6170706c 652e6170 702d7361 6e64626f 782e7265 61642d77 72697465 3b30313b 30313030 30303034 3b303030 30303030 30303039 31376662 623b3031 3b2f6170 706c6963 6174696f 6e732f74 656c6567 72616d2e 61707000 a8000000 feffffff 01000000 00000000 0d000000 04100000 2c000000 00000000 05100000 5c000000 00000000 10100000 7c000000 00000000 40100000 6c000000 00000000 02200000 2c010000 00000000 05200000 9c000000 00000000 10200000 ac000000 00000000 11200000 e0000000 00000000 12200000 c0000000 00000000 13200000 d0000000 00000000 20200000 0c010000 00000000 30200000 38010000 00000000 80f00000 40010000 00000000>;
            "bundle-identifier" = "ru.keepcoder.Telegram";
            "dock-extra" = 0;
            "file-data" =             {
                "_CFURLString" = "file:///Applications/Telegram.app/";
                "_CFURLStringType" = 15;
            };
            "file-label" = Telegram;
            "file-mod-date" = 3645621373;
            "file-type" = 41;
            "parent-mod-date" = 36871652575045;
        };
        "tile-type" = "file-tile";
    },
        {
        GUID = 1510885116;
        "tile-data" =         {
            book = <626f6f6b d4020000 00000410 30000000 00000000 00000000 00000000 00000000 00000000 00000000 00000000 00000000 f4010000 0c000000 01010000 4170706c 69636174 696f6e73 09000000 01010000 426f6f6b 732e6170 70000000 08000000 01060000 04000000 18000000 08000000 04030000 29000000 00000000 08000000 04030000 19080000 00000000 08000000 01060000 3c000000 4c000000 08000000 00040000 41c093da be000000 18000000 01020000 02000000 00000000 0f000000 00000000 00000000 00000000 08000000 01090000 66696c65 3a2f2f2f 0c000000 01010000 4d616369 6e746f73 68204844 08000000 04030000 00503f2d 1c000000 08000000 00040000 41c0aa62 88fba6bc 24000000 01010000 39423845 37454442 2d423134 302d3445 35372d38 3135442d 34453431 42343345 37343946 18000000 01020000 81000000 01000000 ef130000 01000000 00000000 00000000 01000000 01010000 2f000000 00000000 01050000 ab000000 01020000 39303866 66333061 36313036 33386333 64333330 30633530 38326538 31333666 36343234 64653465 3b30303b 30303030 30303030 3b303030 30303030 303b3030 30303030 30303b30 30303030 30303030 30303030 3031613b 636f6d2e 6170706c 652e6170 702d7361 6e64626f 782e7265 61643b30 313b3031 30303030 30343b30 30303030 30303030 30303030 3831393b 30353b2f 6170706c 69636174 696f6e73 2f626f6f 6b732e61 70700000 a8000000 feffffff 01000000 00000000 0d000000 04100000 2c000000 00000000 05100000 5c000000 00000000 10100000 7c000000 00000000 40100000 6c000000 00000000 02200000 2c010000 00000000 05200000 9c000000 00000000 10200000 ac000000 00000000 11200000 e0000000 00000000 12200000 c0000000 00000000 13200000 d0000000 00000000 20200000 0c010000 00000000 30200000 38010000 00000000 81f00000 40010000 00000000>;
            "bundle-identifier" = "com.apple.iBooksX";
            "dock-extra" = 0;
            "file-data" =             {
                "_CFURLString" = "file:///Applications/Books.app/";
                "_CFURLStringType" = 15;
            };
            "file-label" = Books;
            "file-mod-date" = 102013414903213;
            "file-type" = 41;
            "parent-mod-date" = 43954050940996;
        };
        "tile-type" = "file-tile";
    },
        {
        GUID = 3556265156;
        "tile-data" =         {
            book = <626f6f6b dc020000 00000410 30000000 00000000 00000000 00000000 00000000 00000000 00000000 00000000 00000000 fc010000 0c000000 01010000 4170706c 69636174 696f6e73 09000000 01010000 69546572 6d2e6170 70000000 08000000 01060000 04000000 18000000 08000000 04030000 29000000 00000000 08000000 04030000 5e2c1800 00000000 08000000 01060000 3c000000 4c000000 08000000 00040000 41c0fb7f a1000000 18000000 01020000 02000000 00000000 0f000000 00000000 00000000 00000000 08000000 01090000 66696c65 3a2f2f2f 0c000000 01010000 4d616369 6e746f73 68204844 08000000 04030000 00503f2d 1c000000 08000000 00040000 41c0aa62 88fba6bc 24000000 01010000 39423845 37454442 2d423134 302d3445 35372d38 3135442d 34453431 42343345 37343946 18000000 01020000 81000000 01000000 ef130000 01000000 00000000 00000000 01000000 01010000 2f000000 00000000 01050000 b1000000 01020000 62663764 64646164 39306266 61393965 37616430 34323663 31393630 65643866 61393263 66336462 3b30303b 30303030 30303030 3b303030 30303030 303b3030 30303030 30303b30 30303030 30303030 30303030 3032303b 636f6d2e 6170706c 652e6170 702d7361 6e64626f 782e7265 61642d77 72697465 3b30313b 30313030 30303034 3b303030 30303030 30303031 38326335 653b3031 3b2f6170 706c6963 6174696f 6e732f69 7465726d 2e617070 00000000 a8000000 feffffff 01000000 00000000 0d000000 04100000 2c000000 00000000 05100000 5c000000 00000000 10100000 7c000000 00000000 40100000 6c000000 00000000 02200000 2c010000 00000000 05200000 9c000000 00000000 10200000 ac000000 00000000 11200000 e0000000 00000000 12200000 c0000000 00000000 13200000 d0000000 00000000 20200000 0c010000 00000000 30200000 38010000 00000000 80f00000 40010000 00000000>;
            "bundle-identifier" = "com.googlecode.iterm2";
            "dock-extra" = 0;
            "file-data" =             {
                "_CFURLString" = "file:///Applications/iTerm.app/";
                "_CFURLStringType" = 15;
            };
            "file-label" = iTerm;
            "file-mod-date" = 3630987330;
            "file-type" = 41;
            "parent-mod-date" = 111123044316931;
        };
        "tile-type" = "file-tile";
    },
        {
        GUID = 3556265142;
        "tile-data" =         {
            book = <626f6f6b dc020000 00000410 30000000 00000000 00000000 00000000 00000000 00000000 00000000 00000000 00000000 fc010000 0c000000 01010000 4170706c 69636174 696f6e73 09000000 01010000 4e6f6973 792e6170 70000000 08000000 01060000 04000000 18000000 08000000 04030000 29000000 00000000 08000000 04030000 e1591800 00000000 08000000 01060000 3c000000 4c000000 08000000 00040000 41b21dd9 df000000 18000000 01020000 02000000 00000000 0f000000 00000000 00000000 00000000 08000000 01090000 66696c65 3a2f2f2f 0c000000 01010000 4d616369 6e746f73 68204844 08000000 04030000 00503f2d 1c000000 08000000 00040000 41c0aa62 88fba6bc 24000000 01010000 39423845 37454442 2d423134 302d3445 35372d38 3135442d 34453431 42343345 37343946 18000000 01020000 81000000 01000000 ef130000 01000000 00000000 00000000 01000000 01010000 2f000000 00000000 01050000 b1000000 01020000 62653838 31666661 35353062 39303732 32313764 36666261 31336565 63333964 35636165 66353939 3b30303b 30303030 30303030 3b303030 30303030 303b3030 30303030 30303b30 30303030 30303030 30303030 3032303b 636f6d2e 6170706c 652e6170 702d7361 6e64626f 782e7265 61642d77 72697465 3b30313b 30313030 30303034 3b303030 30303030 30303031 38353965 313b3031 3b2f6170 706c6963 6174696f 6e732f6e 6f697379 2e617070 00000000 a8000000 feffffff 01000000 00000000 0d000000 04100000 2c000000 00000000 05100000 5c000000 00000000 10100000 7c000000 00000000 40100000 6c000000 00000000 02200000 2c010000 00000000 05200000 9c000000 00000000 10200000 ac000000 00000000 11200000 e0000000 00000000 12200000 c0000000 00000000 13200000 d0000000 00000000 20200000 0c010000 00000000 30200000 38010000 00000000 80f00000 40010000 00000000>;
            "bundle-identifier" = "com.rathertremendous.noisy";
            "dock-extra" = 0;
            "file-data" =             {
                "_CFURLString" = "file:///Applications/Noisy.app/";
                "_CFURLStringType" = 15;
            };
            "file-label" = Noisy;
            "file-mod-date" = 3365098207;
            "file-type" = 41;
            "parent-mod-date" = 83283059692330;
        };
        "tile-type" = "file-tile";
    },
        {
        GUID = 1510885118;
        "tile-data" =         {
            book = <626f6f6b e4020000 00000410 30000000 00000000 00000000 00000000 00000000 00000000 00000000 00000000 00000000 04020000 0c000000 01010000 4170706c 69636174 696f6e73 0f000000 01010000 43727970 746f6d61 746f722e 61707000 08000000 01060000 04000000 18000000 08000000 04030000 29000000 00000000 08000000 04030000 03702f00 00000000 08000000 01060000 40000000 50000000 08000000 00040000 41c114bd 7d800000 18000000 01020000 02000000 00000000 0f000000 00000000 00000000 00000000 08000000 01090000 66696c65 3a2f2f2f 0c000000 01010000 4d616369 6e746f73 68204844 08000000 04030000 00503f2d 1c000000 08000000 00040000 41c0aa62 88fba6bc 24000000 01010000 39423845 37454442 2d423134 302d3445 35372d38 3135442d 34453431 42343345 37343946 18000000 01020000 81000000 01000000 ef130000 01000000 00000000 00000000 01000000 01010000 2f000000 00000000 01050000 b7000000 01020000 65633837 34616236 65353662 65316164 34383636 31333763 39373634 64376661 33363766 31636365 3b30303b 30303030 30303030 3b303030 30303030 303b3030 30303030 30303b30 30303030 30303030 30303030 3032303b 636f6d2e 6170706c 652e6170 702d7361 6e64626f 782e7265 61642d77 72697465 3b30313b 30313030 30303034 3b303030 30303030 30303032 66373030 333b3031 3b2f6170 706c6963 6174696f 6e732f63 72797074 6f6d6174 6f722e61 70700000 a8000000 feffffff 01000000 00000000 0d000000 04100000 30000000 00000000 05100000 60000000 00000000 10100000 80000000 00000000 40100000 70000000 00000000 02200000 30010000 00000000 05200000 a0000000 00000000 10200000 b0000000 00000000 11200000 e4000000 00000000 12200000 c4000000 00000000 13200000 d4000000 00000000 20200000 10010000 00000000 30200000 3c010000 00000000 80f00000 44010000 00000000>;
            "bundle-identifier" = "org.cryptomator";
            "dock-extra" = 0;
            "file-data" =             {
                "_CFURLString" = "file:///Applications/Cryptomator.app/";
                "_CFURLStringType" = 15;
            };
            "file-label" = Cryptomator;
            "file-mod-date" = 3634295803;
            "file-type" = 41;
            "parent-mod-date" = 161069214673871;
        };
        "tile-type" = "file-tile";
    },
        {
        GUID = 3556265125;
        "tile-data" =         {
            book = <626f6f6b dc020000 00000410 30000000 00000000 00000000 00000000 00000000 00000000 00000000 00000000 00000000 fc010000 0c000000 01010000 4170706c 69636174 696f6e73 0b000000 01010000 46697265 666f782e 61707000 08000000 01060000 04000000 18000000 08000000 04030000 29000000 00000000 08000000 04030000 83de9900 00000000 08000000 01060000 3c000000 4c000000 08000000 00040000 41c16fe3 14000000 18000000 01020000 02000000 00000000 0f000000 00000000 00000000 00000000 08000000 01090000 66696c65 3a2f2f2f 0c000000 01010000 4d616369 6e746f73 68204844 08000000 04030000 00503f2d 1c000000 08000000 00040000 41c0aa62 88fba6bc 24000000 01010000 39423845 37454442 2d423134 302d3445 35372d38 3135442d 34453431 42343345 37343946 18000000 01020000 81000000 01000000 ef130000 01000000 00000000 00000000 01000000 01010000 2f000000 00000000 01050000 b3000000 01020000 33336362 34656162 61343165 65666663 36313966 32303033 34656336 63623266 34636334 39616161 3b30303b 30303030 30303030 3b303030 30303030 303b3030 30303030 30303b30 30303030 30303030 30303030 3032303b 636f6d2e 6170706c 652e6170 702d7361 6e64626f 782e7265 61642d77 72697465 3b30313b 30313030 30303034 3b303030 30303030 30303039 39646538 333b3031 3b2f6170 706c6963 6174696f 6e732f66 69726566 6f782e61 70700000 a8000000 feffffff 01000000 00000000 0d000000 04100000 2c000000 00000000 05100000 5c000000 00000000 10100000 7c000000 00000000 40100000 6c000000 00000000 02200000 2c010000 00000000 05200000 9c000000 00000000 10200000 ac000000 00000000 11200000 e0000000 00000000 12200000 c0000000 00000000 13200000 d0000000 00000000 20200000 0c010000 00000000 30200000 38010000 00000000 80f00000 40010000 00000000>;
            "bundle-identifier" = "org.mozilla.firefox";
            "dock-extra" = 0;
            "file-data" =             {
                "_CFURLString" = "file:///Applications/Firefox.app/";
                "_CFURLStringType" = 15;
            };
            "file-label" = Firefox;
            "file-mod-date" = 3646242600;
            "file-type" = 41;
            "parent-mod-date" = 177561895778220;
        };
        "tile-type" = "file-tile";
    },
        {
        GUID = 3556265122;
        "tile-data" =         {
            book = <626f6f6b dc020000 00000410 30000000 00000000 00000000 00000000 00000000 00000000 00000000 00000000 00000000 fc010000 0c000000 01010000 4170706c 69636174 696f6e73 0d000000 01010000 4175746f 6d61746f 722e6170 70000000 08000000 01060000 04000000 18000000 08000000 04030000 29000000 00000000 08000000 04030000 6a030000 00000000 08000000 01060000 40000000 50000000 08000000 00040000 41c093d1 ab800000 18000000 01020000 02000000 00000000 0f000000 00000000 00000000 00000000 08000000 01090000 66696c65 3a2f2f2f 0c000000 01010000 4d616369 6e746f73 68204844 08000000 04030000 00503f2d 1c000000 08000000 00040000 41c0aa62 88fba6bc 24000000 01010000 39423845 37454442 2d423134 302d3445 35372d38 3135442d 34453431 42343345 37343946 18000000 01020000 81000000 01000000 ef130000 01000000 00000000 00000000 01000000 01010000 2f000000 00000000 01050000 af000000 01020000 64333164 37323464 30653664 63366139 61393736 34666132 64373530 39663130 38363063 38366465 3b30303b 30303030 30303030 3b303030 30303030 303b3030 30303030 30303b30 30303030 30303030 30303030 3031613b 636f6d2e 6170706c 652e6170 702d7361 6e64626f 782e7265 61643b30 313b3031 30303030 30343b30 30303030 30303030 30303030 3336613b 30353b2f 6170706c 69636174 696f6e73 2f617574 6f6d6174 6f722e61 70700000 a8000000 feffffff 01000000 00000000 0d000000 04100000 30000000 00000000 05100000 60000000 00000000 10100000 80000000 00000000 40100000 70000000 00000000 02200000 30010000 00000000 05200000 a0000000 00000000 10200000 b0000000 00000000 11200000 e4000000 00000000 12200000 c4000000 00000000 13200000 d4000000 00000000 20200000 10010000 00000000 30200000 3c010000 00000000 81f00000 44010000 00000000>;
            "bundle-identifier" = "com.apple.Automator";
            "dock-extra" = 0;
            "file-data" =             {
                "_CFURLString" = "file:///Applications/Automator.app/";
                "_CFURLStringType" = 15;
            };
            "file-label" = Automator;
            "file-mod-date" = 103323379928493;
            "file-type" = 41;
            "parent-mod-date" = 36871652575045;
        };
        "tile-type" = "file-tile";
    },
        {
        GUID = 1510885117;
        "tile-data" =         {
            book = <626f6f6b dc020000 00000410 30000000 00000000 00000000 00000000 00000000 00000000 00000000 00000000 00000000 fc010000 0c000000 01010000 4170706c 69636174 696f6e73 09000000 01010000 584d696e 642e6170 70000000 08000000 01060000 04000000 18000000 08000000 04030000 29000000 00000000 08000000 04030000 92461800 00000000 08000000 01060000 3c000000 4c000000 08000000 00040000 41c08389 91000000 18000000 01020000 02000000 00000000 0f000000 00000000 00000000 00000000 08000000 01090000 66696c65 3a2f2f2f 0c000000 01010000 4d616369 6e746f73 68204844 08000000 04030000 00503f2d 1c000000 08000000 00040000 41c0aa62 88fba6bc 24000000 01010000 39423845 37454442 2d423134 302d3445 35372d38 3135442d 34453431 42343345 37343946 18000000 01020000 81000000 01000000 ef130000 01000000 00000000 00000000 01000000 01010000 2f000000 00000000 01050000 b1000000 01020000 31303439 39623738 33633966 31643839 33303763 31343430 61363238 35323865 32356465 61323035 3b30303b 30303030 30303030 3b303030 30303030 303b3030 30303030 30303b30 30303030 30303030 30303030 3032303b 636f6d2e 6170706c 652e6170 702d7361 6e64626f 782e7265 61642d77 72697465 3b30313b 30313030 30303034 3b303030 30303030 30303031 38343639 323b3031 3b2f6170 706c6963 6174696f 6e732f78 6d696e64 2e617070 00000000 a8000000 feffffff 01000000 00000000 0d000000 04100000 2c000000 00000000 05100000 5c000000 00000000 10100000 7c000000 00000000 40100000 6c000000 00000000 02200000 2c010000 00000000 05200000 9c000000 00000000 10200000 ac000000 00000000 11200000 e0000000 00000000 12200000 c0000000 00000000 13200000 d0000000 00000000 20200000 0c010000 00000000 30200000 38010000 00000000 80f00000 40010000 00000000>;
            "bundle-identifier" = "org.xmind.cathy.application";
            "dock-extra" = 0;
            "file-data" =             {
                "_CFURLString" = "file:///Applications/XMind.app/";
                "_CFURLStringType" = 15;
            };
            "file-label" = XMind;
            "file-mod-date" = 3615263778;
            "file-type" = 41;
            "parent-mod-date" = 110959836600734;
        };
        "tile-type" = "file-tile";
    },
        {
        GUID = 1510885119;
        "tile-data" =         {
            book = <626f6f6b d4020000 00000410 30000000 00000000 00000000 00000000 00000000 00000000 00000000 00000000 00000000 f4010000 0c000000 01010000 4170706c 69636174 696f6e73 08000000 01010000 44617368 2e617070 08000000 01060000 04000000 18000000 08000000 04030000 29000000 00000000 08000000 04030000 18009600 00000000 08000000 01060000 38000000 48000000 08000000 00040000 41c16617 0f000000 18000000 01020000 02000000 00000000 0f000000 00000000 00000000 00000000 08000000 01090000 66696c65 3a2f2f2f 0c000000 01010000 4d616369 6e746f73 68204844 08000000 04030000 00503f2d 1c000000 08000000 00040000 41c0aa62 88fba6bc 24000000 01010000 39423845 37454442 2d423134 302d3445 35372d38 3135442d 34453431 42343345 37343946 18000000 01020000 81000000 01000000 ef130000 01000000 00000000 00000000 01000000 01010000 2f000000 00000000 01050000 b0000000 01020000 64646133 31343032 34643031 32333663 33386162 30376338 30666431 36333833 31303239 37313438 3b30303b 30303030 30303030 3b303030 30303030 303b3030 30303030 30303b30 30303030 30303030 30303030 3032303b 636f6d2e 6170706c 652e6170 702d7361 6e64626f 782e7265 61642d77 72697465 3b30313b 30313030 30303034 3b303030 30303030 30303039 36303031 383b3031 3b2f6170 706c6963 6174696f 6e732f64 6173682e 61707000 a8000000 feffffff 01000000 00000000 0d000000 04100000 28000000 00000000 05100000 58000000 00000000 10100000 78000000 00000000 40100000 68000000 00000000 02200000 28010000 00000000 05200000 98000000 00000000 10200000 a8000000 00000000 11200000 dc000000 00000000 12200000 bc000000 00000000 13200000 cc000000 00000000 20200000 08010000 00000000 30200000 34010000 00000000 80f00000 3c010000 00000000>;
            "bundle-identifier" = "com.kapeli.dashdoc";
            "dock-extra" = 0;
            "file-data" =             {
                "_CFURLString" = "file:///Applications/Dash.app/";
                "_CFURLStringType" = 15;
            };
            "file-label" = Dash;
            "file-mod-date" = 3644958494;
            "file-type" = 41;
            "parent-mod-date" = 103142991448470;
        };
        "tile-type" = "file-tile";
    },
        {
        GUID = 1510885120;
        "tile-data" =         {
            book = <626f6f6b d4020000 00000410 30000000 00000000 00000000 00000000 00000000 00000000 00000000 00000000 00000000 f4010000 0c000000 01010000 4170706c 69636174 696f6e73 08000000 01010000 416e6b69 2e617070 08000000 01060000 04000000 18000000 08000000 04030000 29000000 00000000 08000000 04030000 04692f00 00000000 08000000 01060000 38000000 48000000 08000000 00040000 41c11b0e 13000000 18000000 01020000 02000000 00000000 0f000000 00000000 00000000 00000000 08000000 01090000 66696c65 3a2f2f2f 0c000000 01010000 4d616369 6e746f73 68204844 08000000 04030000 00503f2d 1c000000 08000000 00040000 41c0aa62 88fba6bc 24000000 01010000 39423845 37454442 2d423134 302d3445 35372d38 3135442d 34453431 42343345 37343946 18000000 01020000 81000000 01000000 ef130000 01000000 00000000 00000000 01000000 01010000 2f000000 00000000 01050000 b0000000 01020000 37646166 31303238 36323731 30363239 62316365 38323731 61623561 66323238 34303534 62633166 3b30303b 30303030 30303030 3b303030 30303030 303b3030 30303030 30303b30 30303030 30303030 30303030 3032303b 636f6d2e 6170706c 652e6170 702d7361 6e64626f 782e7265 61642d77 72697465 3b30313b 30313030 30303034 3b303030 30303030 30303032 66363930 343b3031 3b2f6170 706c6963 6174696f 6e732f61 6e6b692e 61707000 a8000000 feffffff 01000000 00000000 0d000000 04100000 28000000 00000000 05100000 58000000 00000000 10100000 78000000 00000000 40100000 68000000 00000000 02200000 28010000 00000000 05200000 98000000 00000000 10200000 a8000000 00000000 11200000 dc000000 00000000 12200000 bc000000 00000000 13200000 cc000000 00000000 20200000 08010000 00000000 30200000 34010000 00000000 80f00000 3c010000 00000000>;
            "bundle-identifier" = "net.ankiweb.dtop";
            "dock-extra" = 0;
            "file-data" =             {
                "_CFURLString" = "file:///Applications/Anki.app/";
                "_CFURLStringType" = 15;
            };
            "file-label" = Anki;
            "file-mod-date" = 3635123494;
            "file-type" = 41;
            "parent-mod-date" = 250803965026293;
        };
        "tile-type" = "file-tile";
    },
        {
        GUID = 3270151404;
        "tile-data" =         {
            book = <626f6f6b d8020000 00000410 30000000 00000000 00000000 00000000 00000000 00000000 00000000 00000000 00000000 f8010000 0c000000 01010000 4170706c 69636174 696f6e73 0c000000 01010000 53746963 6b696573 2e617070 08000000 01060000 04000000 18000000 08000000 04030000 29000000 00000000 08000000 04030000 84130100 00000000 08000000 01060000 3c000000 4c000000 08000000 00040000 41c093cd 32800000 18000000 01020000 02000000 00000000 0f000000 00000000 00000000 00000000 08000000 01090000 66696c65 3a2f2f2f 0c000000 01010000 4d616369 6e746f73 68204844 08000000 04030000 00503f2d 1c000000 08000000 00040000 41c0aa62 88fba6bc 24000000 01010000 39423845 37454442 2d423134 302d3445 35372d38 3135442d 34453431 42343345 37343946 18000000 01020000 81000000 01000000 ef130000 01000000 00000000 00000000 01000000 01010000 2f000000 00000000 01050000 ae000000 01020000 66376131 35653437 65663434 33623138 36306533 64343533 38383365 61363962 30353362 33373835 3b30303b 30303030 30303030 3b303030 30303030 303b3030 30303030 30303b30 30303030 30303030 30303030 3031613b 636f6d2e 6170706c 652e6170 702d7361 6e64626f 782e7265 61643b30 313b3031 30303030 30343b30 30303030 30303030 30303131 3338343b 30353b2f 6170706c 69636174 696f6e73 2f737469 636b6965 732e6170 70000000 a8000000 feffffff 01000000 00000000 0d000000 04100000 2c000000 00000000 05100000 5c000000 00000000 10100000 7c000000 00000000 40100000 6c000000 00000000 02200000 2c010000 00000000 05200000 9c000000 00000000 10200000 ac000000 00000000 11200000 e0000000 00000000 12200000 c0000000 00000000 13200000 d0000000 00000000 20200000 0c010000 00000000 30200000 38010000 00000000 81f00000 40010000 00000000>;
            "bundle-identifier" = "com.apple.Stickies";
            "dock-extra" = 0;
            "file-data" =             {
                "_CFURLString" = "file:///Applications/Stickies.app/";
                "_CFURLStringType" = 15;
            };
            "file-label" = Stickies;
            "file-mod-date" = 69826916069299;
            "file-type" = 41;
            "parent-mod-date" = 148059755459435;
        };
        "tile-type" = "file-tile";
    },
        {
        GUID = 1510885191;
        "tile-data" =         {
            book = <626f6f6b dc020000 00000410 30000000 00000000 00000000 00000000 00000000 00000000 00000000 00000000 00000000 fc010000 0c000000 01010000 4170706c 69636174 696f6e73 0b000000 01010000 5465726d 6975732e 61707000 08000000 01060000 04000000 18000000 08000000 04030000 29000000 00000000 08000000 04030000 bb3f2000 00000000 08000000 01060000 3c000000 4c000000 08000000 00040000 41c10a9f 1d800000 18000000 01020000 02000000 00000000 0f000000 00000000 00000000 00000000 08000000 01090000 66696c65 3a2f2f2f 0c000000 01010000 4d616369 6e746f73 68204844 08000000 04030000 00503f2d 1c000000 08000000 00040000 41c0aa62 88fba6bc 24000000 01010000 39423845 37454442 2d423134 302d3445 35372d38 3135442d 34453431 42343345 37343946 18000000 01020000 81000000 01000000 ef130000 01000000 00000000 00000000 01000000 01010000 2f000000 00000000 01050000 b3000000 01020000 63336430 37343332 62346261 34666662 31316162 38373764 62323762 32336635 61663236 37346362 3b30303b 30303030 30303030 3b303030 30303030 303b3030 30303030 30303b30 30303030 30303030 30303030 3032303b 636f6d2e 6170706c 652e6170 702d7361 6e64626f 782e7265 61642d77 72697465 3b30313b 30313030 30303034 3b303030 30303030 30303032 30336662 623b3031 3b2f6170 706c6963 6174696f 6e732f74 65726d69 75732e61 70700000 a8000000 feffffff 01000000 00000000 0d000000 04100000 2c000000 00000000 05100000 5c000000 00000000 10100000 7c000000 00000000 40100000 6c000000 00000000 02200000 2c010000 00000000 05200000 9c000000 00000000 10200000 ac000000 00000000 11200000 e0000000 00000000 12200000 c0000000 00000000 13200000 d0000000 00000000 20200000 0c010000 00000000 30200000 38010000 00000000 80f00000 40010000 00000000>;
            "bundle-identifier" = "com.termius.mac";
            "dock-extra" = 0;
            "file-data" =             {
                "_CFURLString" = "file:///Applications/Termius.app/";
                "_CFURLStringType" = 15;
            };
            "file-label" = Termius;
            "file-mod-date" = 157358350605382;
            "file-type" = 41;
            "parent-mod-date" = 161069214673871;
        };
        "tile-type" = "file-tile";
    }
)
